{
    "prepare_queue": {
        "installed": [],
        "uninstalled": []
    },
    "config_munge": {
        "files": {
            "package.phone.appxmanifest": {
                "parents": {
                    "/Package/Capabilities": [
                        {
                            "xml": "<m3:Capability Name=\"contacts\" />",
                            "count": 1
                        }
                    ]
                }
            }
        }
    },
    "installed_plugins": {
        "org.apache.cordova.contacts": {
            "PACKAGE_NAME": "TestCordova"
        },
        "com.phonegap.plugins.PushPlugin": {
            "PACKAGE_NAME": "TestCordova"
        },
        "org.apache.cordova.dialogs": {
            "PACKAGE_NAME": "TestCordova"
        },
        "org.imprezzio.cordova.dialer": {
            "PACKAGE_NAME": "TestCordova"
        }
    },
    "dependent_plugins": {}
}