{
    "org.apache.cordova.contacts": {
        "source": {
            "type": "registry",
            "id": "org.apache.cordova.contacts"
        }
    },
    "com.phonegap.plugins.PushPlugin": {
        "source": {
            "type": "git",
            "url": "https://github.com/phonegap-build/PushPlugin.git",
            "subdir": "."
        }
    }
}