{
    "prepare_queue": {
        "installed": [],
        "uninstalled": []
    },
    "config_munge": {
        "files": {}
    },
    "installed_plugins": {
        "org.apache.cordova.dialogs": {
            "PACKAGE_NAME": "TestProject"
        },
        "com.phonegap.plugins.PushPlugin": {
            "PACKAGE_NAME": "TestProject"
        }
    },
    "dependent_plugins": {}
}